…
## $ulta
## # A tibble: 4,004 x 8
##    brand  product    url          description  imgSrc     imgAlt  name  specific
##    <chr>  <chr>      <chr>        <chr>        <chr>      <chr>   <chr> <chr>   
##  1 Cover~ TruBlend ~ https://www~ Fair Porcel~ https://i~ Fair P~ Fair~ L10     
##  2 Cover~ TruBlend ~ https://www~ Light Ivory~ https://i~ Light ~ Ligh~ L20     
##  3 Cover~ TruBlend ~ https://www~ Golden Ivor~ https://i~ Golden~ Gold~ L30     
##  4 Cover~ TruBlend ~ https://www~ Classic Ivo~ https://i~ Classi~ Clas~ L40     
##  5 Cover~ TruBlend ~ https://www~ Fair Beige ~ https://i~ Fair B~ Fair~ L50     
##  6 Cover~ TruBlend ~ https://www~ Light Nude ~ https://i~ Light ~ Ligh~ L60     
##  7 Cover~ TruBlend ~ https://www~ Natural Ivo~ https://i~ Natura~ Natu~ L70     
##  8 Cover~ TruBlend ~ https://www~ True Ivory ~ https://i~ True I~ True~ L80     
##  9 Cover~ TruBlend ~ https://www~ Classic Bei~ https://i~ Classi~ Clas~ L90     
## 10 Cover~ TruBlend ~ https://www~ Golden Natu~ https://i~ Golden~ Gold~ M10     
## # ... with 3,994 more rows
## 
## $sephora
## # A tibble: 4,371 x 8
##    brand   product    url         description    imgSrc   imgAlt  name  specific
##    <chr>   <chr>      <chr>       <chr>          <chr>    <chr>   <chr> <chr>   
##  1 FENTY ~ Pro Filt'~ https://ww~ 100 for very ~ /produc~ 100 0.~ <NA>  100     
##  2 FENTY ~ Pro Filt'~ https://ww~ 105 for very ~ /produc~ 105 0.~ <NA>  105     
##  3 FENTY ~ Pro Filt'~ https://ww~ 110 for very ~ /produc~ 110 0.~ <NA>  110     
##  4 FENTY ~ Pro Filt'~ https://ww~ 120 for fair ~ /produc~ 120 0.~ <NA>  120     
##  5 FENTY ~ Pro Filt'~ https://ww~ 130 for fair ~ /produc~ 130 0.~ <NA>  130     
##  6 FENTY ~ Pro Filt'~ https://ww~ 140 for light~ /produc~ 140 0.~ <NA>  140     
##  7 FENTY ~ Pro Filt'~ https://ww~ 145 for light~ /produc~ 145 0.~ <NA>  145     
##  8 FENTY ~ Pro Filt'~ https://ww~ 150 for light~ /produc~ 150 0.~ <NA>  150     
##  9 FENTY ~ Pro Filt'~ https://ww~ 160 for light~ /produc~ 160 0.~ <NA>  160     
## 10 FENTY ~ Pro Filt'~ https://ww~ 170 for light~ /produc~ 170 0.~ <NA>  170     
## # ... with 4,361 more rows
## 
## $allShades
## # A tibble: 6,816 x 13
##    brand product url   description imgSrc imgAlt name  specific colorspace hex  
##    <chr> <chr>   <chr> <chr>       <chr>  <chr>  <chr> <chr>    <chr>      <chr>
##  1 Anas~ Lumino~ http~ 355N (medi~ https~ 355N ~ <NA>  355N     RGB        #A06~
##  2 Anas~ Lumino~ http~ 100N (very~ https~ 100N ~ <NA>  100N     RGB        #F1E~
##  3 Anas~ Lumino~ http~ 110C (very~ https~ 110C ~ <NA>  110C     RGB        #F0E~
##  4 Anas~ Lumino~ http~ 120W (very~ https~ 120W ~ <NA>  120W     RGB        #EFD~
##  5 Anas~ Lumino~ http~ 130N (very~ https~ 130N ~ <NA>  130N     RGB        #D5C~
##  6 Anas~ Lumino~ http~ 140N (fair~ https~ 140N ~ <NA>  140N     RGB        #DBC~
##  7 Anas~ Lumino~ http~ 150W (fair~ https~ 150W ~ <NA>  150W     RGB        #EFC~
##  8 Anas~ Lumino~ http~ 160C (fair~ https~ 160C ~ <NA>  160C     RGB        #DEC~
##  9 Anas~ Lumino~ http~ 200W (ligh~ https~ 200W ~ <NA>  200W     RGB        #EDC~
## 10 Anas~ Lumino~ http~ 210N (ligh~ https~ 210N ~ <NA>  210N     RGB        #E8C~
## # ... with 6,806 more rows, and 3 more variables: hue <dbl>, sat <dbl>,
## #   lightness <dbl>
## 
## $allNumbers
## # A tibble: 3,117 x 9
##    brand   product      name  specific lightness hex   lightToDark numbers    id
##    <chr>   <chr>        <chr> <chr>        <dbl> <chr> <lgl>         <dbl> <dbl>
##  1 Makeup~ Conceal & D~ <NA>  F0           0.949 #F2F~ TRUE            0       1
##  2 HOURGL~ Veil Fluid ~ Porc~ No. 0        0.818 #F6D~ TRUE            0       2
##  3 TOM FO~ Traceless S~ Pearl 0.0          0.851 #F0D~ TRUE            0       3
##  4 Armani~ Neo Nude Fo~ <NA>  0            0.912 #F0E~ TRUE            0       4
##  5 TOM FO~ Traceless F~ Pearl 0.0          0.912 #FDE~ TRUE            0       5
##  6 Charlo~ Magic Found~ <NA>  0            0.731 #D9A~ TRUE            0       6
##  7 Bobbi ~ Skin Weight~ Porc~ 0            0.822 #F3C~ TRUE            0       7
##  8 Givenc~ Matissime V~ <NA>  N00          0.831 #F5D~ TRUE            0       8
##  9 Smashb~ Studio Skin~ <NA>  0.1          0.814 #F8C~ TRUE            0.1     9
## 10 Smashb~ Studio Skin~ <NA>  0.1          0.910 #F9E~ TRUE            0.1    10
## # ... with 3,107 more rows
## 
## $allCategories
## # A tibble: 5,307 x 9
##    brand  product   url       imgSrc   name  categories specific hex   lightness
##    <chr>  <chr>     <chr>     <chr>    <chr> <chr>      <chr>    <chr>     <dbl>
##  1 BECCA~ Ultimate~ https://~ https:/~ shell gem        1W1      #EFC~     0.790
##  2 BECCA~ Ultimate~ https://~ https:/~ linen textile    1N1      #F3C~     0.822
##  3 BECCA~ Ultimate~ https://~ https:/~ alab~ gem        1C1      #F2C~     0.827
##  4 BECCA~ Ultimate~ https://~ https:/~ porc~ misc       1N2      #F6C~     0.810
##  5 BECCA~ Ultimate~ https://~ https:/~ ivory gem, color 1C2      #F0C~     0.806
##  6 BECCA~ Ultimate~ https://~ https:/~ sand  rock       1W2      #F2C~     0.782
##  7 BECCA~ Ultimate~ https://~ https:/~ cash~ textile    1N3      #DFB~     0.708
##  8 BECCA~ Ultimate~ https://~ https:/~ vani~ food       2W1      #EEC~     0.773
##  9 BECCA~ Ultimate~ https://~ https:/~ bisq~ food       2C1      #EAB~     0.757
## 10 BECCA~ Ultimate~ https://~ https:/~ cash~ food       2N1      #DDA~     0.708
## # ... with 5,297 more rows
…
